{
	"navHeader": {
		"logo": {
			"image": "",
			"alt": "MyDukan Logo Large",
			"link": "",
			"scrollLink": "#"
		},
		"text": {
			"image": "",
			"alt": "MyDukan Logo Small",
			"link": "",
			"scrollLink": "#"
		},
		"menu": [
			{
				
			}
		]
	}
}