{
	"headerMenu": {
		"enabled": true,
		"menu": [
			{
				"enabled": true,
				"text": "HOME",
				"link": "#",
				"scrollLink": "home"
			}
		],
		"social": [
			{
				"enabled": true,
				"class": "fa fa-facebook-official fa-2x",
				"link": "https://www.facebook.com/netskope",
				"scrollLink": "#"
			},
			{
				"enabled": true,
				"class": "fa fa-twitter fa-2x",
				"link": "https://twitter.com/netskope",
				"scrollLink": "#"
			},
			{
				"enabled": true,
				"class": "fa fa-linkedin fa-2x",
				"link": "https://www.linkedin.com/company/netskope/",
				"scrollLink": "#"
			}
		]
	},
	"footer": {
		"enabled": true
	}
}